[gd_scene load_steps=6 format=2]

[ext_resource path="res://demos/assets/forest_far.png" type="Texture" id=1]
[ext_resource path="res://demos/assets/mountain_far.png" type="Texture" id=2]
[ext_resource path="res://demos/assets/rocky_mountains_far.png" type="Texture" id=3]
[ext_resource path="res://demos/assets/snowy_forest_far.png" type="Texture" id=4]
[ext_resource path="res://backgrounds/FadingBackground.tscn" type="PackedScene" id=5]

[node name="FadingBackgroundDemo" instance=ExtResource( 5 )]
textures = [ ExtResource( 1 ), ExtResource( 2 ), ExtResource( 3 ), ExtResource( 4 ) ]
display_durations = [ 5.0, 25.0, 15.0, 20.0 ]
positions = [ Vector2( 5760, 540 ), Vector2( -3840, 540 ), Vector2( -3840, 540 ), Vector2( 5760, 540 ) ]
offsets = [ Vector2( -2880, 0 ), Vector2( 2880, 0 ), Vector2( 2880, 0 ), Vector2( -2880, 0 ) ]
speeds = [ 75.0, 100.0, 50.0, 75.0 ]
moves_lefts = [ true, false, false, true ]
reset_points = [ 1920, 0, 0, 1920 ]
