[gd_scene load_steps=3 format=2]

[sub_resource type="DynamicFontData" id=1]
font_path = "res://demo/assets/PixelOperator8.ttf"

[sub_resource type="DynamicFont" id=2]
size = 32
font_data = SubResource( 1 )

[node name="Scene3" type="Node2D"]

[node name="Label" type="Label" parent="."]
anchor_left = 0.5
anchor_top = 0.5
anchor_right = 0.5
anchor_bottom = 0.5
margin_top = 50.0
margin_right = 1024.0
margin_bottom = 450.0
rect_pivot_offset = Vector2( 512, 200 )
custom_fonts/font = SubResource( 2 )
text = "This is Scene 3

- did you mention 
this scene has been
loaded ad hoc during
the fade out effect
of scene 2?

Now start your own project
and load your next scenes
in the background!"
align = 1
__meta__ = {
"_edit_use_anchors_": false
}
