[gd_scene load_steps=6 format=2]

[ext_resource path="res://textwriter/TextWriter.gd" type="Script" id=1]
[ext_resource path="res://assets/FadeOut.tres" type="Animation" id=2]

[sub_resource type="DynamicFontData" id=1]
font_path = "res://assets/PixelOperator8.ttf"

[sub_resource type="DynamicFont" id=2]
size = 32
outline_size = 10
outline_color = Color( 0, 0, 0, 1 )
font_data = SubResource( 1 )

[sub_resource type="Animation" id=3]
length = 7.0
tracks/0/type = "value"
tracks/0/path = NodePath(".:modulate")
tracks/0/interp = 1
tracks/0/loop_wrap = true
tracks/0/imported = false
tracks/0/enabled = true
tracks/0/keys = {
"times": PoolRealArray( 0, 4, 7 ),
"transitions": PoolRealArray( 1, 1, 1 ),
"update": 0,
"values": [ Color( 1, 1, 1, 1 ), Color( 1, 1, 1, 1 ), Color( 1, 1, 1, 0 ) ]
}
tracks/1/type = "method"
tracks/1/path = NodePath(".")
tracks/1/interp = 1
tracks/1/loop_wrap = true
tracks/1/imported = false
tracks/1/enabled = true
tracks/1/keys = {
"times": PoolRealArray( 6.9 ),
"transitions": PoolRealArray( 1 ),
"values": [ {
"args": [  ],
"method": "fin"
} ]
}

[node name="TextWriter" type="Label"]
anchor_left = 0.5
anchor_top = 0.5
anchor_right = 0.5
anchor_bottom = 0.5
margin_left = -350.0
margin_top = -150.0
margin_right = 350.0
margin_bottom = 150.0
rect_pivot_offset = Vector2( 350, 150 )
custom_fonts/font = SubResource( 2 )
text = "Lorem Ipsum dolor..."
autowrap = true
script = ExtResource( 1 )
__meta__ = {
"_edit_use_anchors_": false
}

[node name="Timer" type="Timer" parent="."]
wait_time = 0.1

[node name="AnimationPlayer" type="AnimationPlayer" parent="."]
anims/FadeOut = ExtResource( 2 )
anims/LongFadeOut = SubResource( 3 )

[connection signal="timeout" from="Timer" to="." method="showLetter"]
